scCM_round1_lowpass_combined
…
Calculating cluster 8

Calculating cluster 9

Calculating cluster 10

Calculating cluster 11

Calculating cluster 12

#can't figure out a way to do this for cell line vs all other cells, so for now it's just every Seurat identified cluster vs all other cells
cluster.markers_c %>% group_by(cluster) %>% top_n(n=2,wt=avg_logFC)

# A tibble: 26 x 7
# Groups:   cluster [13]
       p_val avg_logFC pct.1 pct.2 p_val_adj cluster gene  
       <dbl>     <dbl> <dbl> <dbl>     <dbl> <fct>   <chr> 
 1 0.            1.19  0.576 0.311 0.        0       TUBB2B
 2 1.15e-215     1.08  0.381 0.216 2.44e-211 0       TUBB2A
 3 0.            1.06  0.675 0.587 0.        1       MDK   
 4 4.93e-163     0.872 0.523 0.409 1.05e-158 1       VIM   
 5 0.            1.19  0.95  0.272 0.        2       TUBB2B
 6 0.            1.14  0.85  0.163 0.        2       TUBB2A
 7 0.            1.40  0.924 0.192 0.        3       TERF1 
 8 0.            1.16  0.996 0.409 0.        3       L1TD1 
 9 0.            3.72  0.876 0.161 0.        4       EMC10 
10 0.            3.20  0.83  0.062 0.        4       MYH6  
# … with 16 more rows
…
